^C:\BEILLESZTES\PIROS\GOLDSMITH COURSES 2nd Y\CREATIVE PROJECT 2nd Y\WShop3_2D_P1\WShop3_2D_P1.vcxproj
C:\BEILLESZTES\PIROS\GOLDSMITH COURSES 2nd Y\CREATIVE PROJECT 2nd Y\WShop3_2D_P1\bin\WShop3_2D_P1_debug.lib
C:\BEILLESZTES\PIROS\GOLDSMITH COURSES 2nd Y\CREATIVE PROJECT 2nd Y\WShop3_2D_P1\bin\WShop3_2D_P1_debug.exp
^C:\BEILLESZTES\PIROS\GOLDSMITH COURSES 2nd Y\CREATIVE PROJECT 2nd Y\WShop3_2D_P1\WShop3_2D_P1.vcxproj
C:\BEILLESZTES\PIROS\GOLDSMITH COURSES 2nd Y\CREATIVE PROJECT 2nd Y\WShop3_2D_P1\bin\WShop3_2D_P1_debug.lib
C:\BEILLESZTES\PIROS\GOLDSMITH COURSES 2nd Y\CREATIVE PROJECT 2nd Y\WShop3_2D_P1\bin\WShop3_2D_P1_debug.exp
^C:\BEILLESZTES\PIROS\GOLDSMITH COURSES 2nd Y\CREATIVE PROJECT 2nd Y\WShop3_2D_P1\WShop3_2D_P1.vcxproj
C:\BEILLESZTES\PIROS\GOLDSMITH COURSES 2nd Y\CREATIVE PROJECT 2nd Y\WShop3_2D_P1\bin\WShop3_2D_P1_debug.lib
C:\BEILLESZTES\PIROS\GOLDSMITH COURSES 2nd Y\CREATIVE PROJECT 2nd Y\WShop3_2D_P1\bin\WShop3_2D_P1_debug.exp
^C:\BEILLESZTES\PIROS\GOLDSMITH COURSES 2nd Y\CREATIVE PROJECT 2nd Y\WShop3_2D_P1\WShop3_2D_P1.vcxproj
C:\BEILLESZTES\PIROS\GOLDSMITH COURSES 2nd Y\CREATIVE PROJECT 2nd Y\WShop3_2D_P1\bin\WShop3_2D_P1_debug.lib
C:\BEILLESZTES\PIROS\GOLDSMITH COURSES 2nd Y\CREATIVE PROJECT 2nd Y\WShop3_2D_P1\bin\WShop3_2D_P1_debug.exp
^C:\BEILLESZTES\PIROS\GOLDSMITH COURSES 2nd Y\CREATIVE PROJECT 2nd Y\WShop3_2D_P1\WShop3_2D_P1.vcxproj
C:\BEILLESZTES\PIROS\GOLDSMITH COURSES 2nd Y\CREATIVE PROJECT 2nd Y\WShop3_2D_P1\bin\WShop3_2D_P1_debug.lib
C:\BEILLESZTES\PIROS\GOLDSMITH COURSES 2nd Y\CREATIVE PROJECT 2nd Y\WShop3_2D_P1\bin\WShop3_2D_P1_debug.exp
^C:\BEILLESZTES\PIROS\GOLDSMITH COURSES 2nd Y\CREATIVE PROJECT 2nd Y\WShop3_2D_P1\WShop3_2D_P1.vcxproj
C:\BEILLESZTES\PIROS\GOLDSMITH COURSES 2nd Y\CREATIVE PROJECT 2nd Y\WShop3_2D_P1\bin\WShop3_2D_P1_debug.lib
C:\BEILLESZTES\PIROS\GOLDSMITH COURSES 2nd Y\CREATIVE PROJECT 2nd Y\WShop3_2D_P1\bin\WShop3_2D_P1_debug.exp
^C:\BEILLESZTES\PIROS\GOLDSMITH COURSES 2nd Y\CREATIVE PROJECT 2nd Y\WShop3_2D_P1\WShop3_2D_P1.vcxproj
C:\BEILLESZTES\PIROS\GOLDSMITH COURSES 2nd Y\CREATIVE PROJECT 2nd Y\WShop3_2D_P1\bin\WShop3_2D_P1_debug.lib
C:\BEILLESZTES\PIROS\GOLDSMITH COURSES 2nd Y\CREATIVE PROJECT 2nd Y\WShop3_2D_P1\bin\WShop3_2D_P1_debug.exp
^C:\BEILLESZTES\PIROS\GOLDSMITH COURSES 2nd Y\CREATIVE PROJECT 2nd Y\WShop3_2D_P1\WShop3_2D_P1.vcxproj
C:\BEILLESZTES\PIROS\GOLDSMITH COURSES 2nd Y\CREATIVE PROJECT 2nd Y\WShop3_2D_P1\bin\WShop3_2D_P1_debug.lib
C:\BEILLESZTES\PIROS\GOLDSMITH COURSES 2nd Y\CREATIVE PROJECT 2nd Y\WShop3_2D_P1\bin\WShop3_2D_P1_debug.exp
^C:\BEILLESZTES\PIROS\GOLDSMITH COURSES 2nd Y\CREATIVE PROJECT 2nd Y\WShop3_2D_P1\WShop3_2D_P1.vcxproj
C:\BEILLESZTES\PIROS\GOLDSMITH COURSES 2nd Y\CREATIVE PROJECT 2nd Y\WShop3_2D_P1\bin\WShop3_2D_P1_debug.lib
C:\BEILLESZTES\PIROS\GOLDSMITH COURSES 2nd Y\CREATIVE PROJECT 2nd Y\WShop3_2D_P1\bin\WShop3_2D_P1_debug.exp
^C:\BEILLESZTES\PIROS\GOLDSMITH COURSES 2nd Y\CREATIVE PROJECT 2nd Y\WShop3_2D_P1\WShop3_2D_P1.vcxproj
C:\BEILLESZTES\PIROS\GOLDSMITH COURSES 2nd Y\CREATIVE PROJECT 2nd Y\WShop3_2D_P1\bin\WShop3_2D_P1_debug.lib
C:\BEILLESZTES\PIROS\GOLDSMITH COURSES 2nd Y\CREATIVE PROJECT 2nd Y\WShop3_2D_P1\bin\WShop3_2D_P1_debug.exp
^C:\BEILLESZTES\PIROS\GOLDSMITH COURSES 2nd Y\CREATIVE PROJECT 2nd Y\WShop3_2D_P1\WShop3_2D_P1.vcxproj
C:\BEILLESZTES\PIROS\GOLDSMITH COURSES 2nd Y\CREATIVE PROJECT 2nd Y\WShop3_2D_P1\bin\WShop3_2D_P1_debug.lib
C:\BEILLESZTES\PIROS\GOLDSMITH COURSES 2nd Y\CREATIVE PROJECT 2nd Y\WShop3_2D_P1\bin\WShop3_2D_P1_debug.exp
^C:\BEILLESZTES\PIROS\GOLDSMITH COURSES 2nd Y\CREATIVE PROJECT 2nd Y\WShop3_2D_P1\WShop3_2D_P1.vcxproj
C:\BEILLESZTES\PIROS\GOLDSMITH COURSES 2nd Y\CREATIVE PROJECT 2nd Y\WShop3_2D_P1\bin\WShop3_2D_P1_debug.lib
C:\BEILLESZTES\PIROS\GOLDSMITH COURSES 2nd Y\CREATIVE PROJECT 2nd Y\WShop3_2D_P1\bin\WShop3_2D_P1_debug.exp
^C:\BEILLESZTES\PIROS\GOLDSMITH COURSES 2nd Y\CREATIVE PROJECT 2nd Y\WShop3_2D_P1\WShop3_2D_P1.vcxproj
C:\BEILLESZTES\PIROS\GOLDSMITH COURSES 2nd Y\CREATIVE PROJECT 2nd Y\WShop3_2D_P1\bin\WShop3_2D_P1_debug.lib
C:\BEILLESZTES\PIROS\GOLDSMITH COURSES 2nd Y\CREATIVE PROJECT 2nd Y\WShop3_2D_P1\bin\WShop3_2D_P1_debug.exp
^C:\BEILLESZTES\PIROS\GOLDSMITH COURSES 2nd Y\CREATIVE PROJECT 2nd Y\WShop3_2D_P1\WShop3_2D_P1.vcxproj
C:\BEILLESZTES\PIROS\GOLDSMITH COURSES 2nd Y\CREATIVE PROJECT 2nd Y\WShop3_2D_P1\bin\WShop3_2D_P1_debug.lib
C:\BEILLESZTES\PIROS\GOLDSMITH COURSES 2nd Y\CREATIVE PROJECT 2nd Y\WShop3_2D_P1\bin\WShop3_2D_P1_debug.exp
^C:\BEILLESZTES\PIROS\GOLDSMITH COURSES 2nd Y\CREATIVE PROJECT 2nd Y\WShop3_2D_P1\WShop3_2D_P1.vcxproj
C:\BEILLESZTES\PIROS\GOLDSMITH COURSES 2nd Y\CREATIVE PROJECT 2nd Y\WShop3_2D_P1\bin\WShop3_2D_P1_debug.lib
C:\BEILLESZTES\PIROS\GOLDSMITH COURSES 2nd Y\CREATIVE PROJECT 2nd Y\WShop3_2D_P1\bin\WShop3_2D_P1_debug.exp
^C:\BEILLESZTES\PIROS\GOLDSMITH COURSES 2nd Y\CREATIVE PROJECT 2nd Y\WShop3_2D_P1X\WShop3_2D_P1.vcxproj
C:\BEILLESZTES\PIROS\GOLDSMITH COURSES 2nd Y\CREATIVE PROJECT 2nd Y\WShop3_2D_P1X\bin\WShop3_2D_P1_debug.lib
C:\BEILLESZTES\PIROS\GOLDSMITH COURSES 2nd Y\CREATIVE PROJECT 2nd Y\WShop3_2D_P1X\bin\WShop3_2D_P1_debug.exp
^C:\BEILLESZTES\PIROS\GOLDSMITH COURSES 2nd Y\CREATIVE PROJECT 2nd Y\WShop3_2D_P1X\WShop3_2D_P1.vcxproj
C:\BEILLESZTES\PIROS\GOLDSMITH COURSES 2nd Y\CREATIVE PROJECT 2nd Y\WShop3_2D_P1X\bin\WShop3_2D_P1_debug.lib
C:\BEILLESZTES\PIROS\GOLDSMITH COURSES 2nd Y\CREATIVE PROJECT 2nd Y\WShop3_2D_P1X\bin\WShop3_2D_P1_debug.exp
^C:\BEILLESZTES\PIROS\GOLDSMITH COURSES 2nd Y\CREATIVE PROJECT 2nd Y\WShop3_2D_P1X\WShop3_2D_P1.vcxproj
C:\BEILLESZTES\PIROS\GOLDSMITH COURSES 2nd Y\CREATIVE PROJECT 2nd Y\WShop3_2D_P1X\bin\WShop3_2D_P1_debug.lib
C:\BEILLESZTES\PIROS\GOLDSMITH COURSES 2nd Y\CREATIVE PROJECT 2nd Y\WShop3_2D_P1X\bin\WShop3_2D_P1_debug.exp
^C:\BEILLESZTES\PIROS\GOLDSMITH COURSES 2nd Y\CREATIVE PROJECT 2nd Y\WShop3_2D_P1X\WShop3_2D_P1.vcxproj
C:\BEILLESZTES\PIROS\GOLDSMITH COURSES 2nd Y\CREATIVE PROJECT 2nd Y\WShop3_2D_P1X\bin\WShop3_2D_P1_debug.lib
C:\BEILLESZTES\PIROS\GOLDSMITH COURSES 2nd Y\CREATIVE PROJECT 2nd Y\WShop3_2D_P1X\bin\WShop3_2D_P1_debug.exp
^C:\BEILLESZTES\PIROS\GOLDSMITH COURSES 2nd Y\CREATIVE PROJECT 2nd Y\WShop3_2D_P1X\WShop3_2D_P1.vcxproj
C:\BEILLESZTES\PIROS\GOLDSMITH COURSES 2nd Y\CREATIVE PROJECT 2nd Y\WShop3_2D_P1X\bin\WShop3_2D_P1_debug.lib
C:\BEILLESZTES\PIROS\GOLDSMITH COURSES 2nd Y\CREATIVE PROJECT 2nd Y\WShop3_2D_P1X\bin\WShop3_2D_P1_debug.exp
^C:\BEILLESZTES\PIROS\GOLDSMITH COURSES 2nd Y\CREATIVE PROJECT 2nd Y\WShop3_2D_P1X\WShop3_2D_P1.vcxproj
C:\BEILLESZTES\PIROS\GOLDSMITH COURSES 2nd Y\CREATIVE PROJECT 2nd Y\WShop3_2D_P1X\bin\WShop3_2D_P1_debug.lib
C:\BEILLESZTES\PIROS\GOLDSMITH COURSES 2nd Y\CREATIVE PROJECT 2nd Y\WShop3_2D_P1X\bin\WShop3_2D_P1_debug.exp
^C:\BEILLESZTES\PIROS\GOLDSMITH COURSES 2nd Y\CREATIVE PROJECT 2nd Y\WShop3_2D_P1X\WShop3_2D_P1.vcxproj
C:\BEILLESZTES\PIROS\GOLDSMITH COURSES 2nd Y\CREATIVE PROJECT 2nd Y\WShop3_2D_P1X\bin\WShop3_2D_P1_debug.lib
C:\BEILLESZTES\PIROS\GOLDSMITH COURSES 2nd Y\CREATIVE PROJECT 2nd Y\WShop3_2D_P1X\bin\WShop3_2D_P1_debug.exp
^C:\BEILLESZTES\PIROS\GOLDSMITH COURSES 2nd Y\CREATIVE PROJECT 2nd Y\WShop3_2D_P1X\WShop3_2D_P1.vcxproj
C:\BEILLESZTES\PIROS\GOLDSMITH COURSES 2nd Y\CREATIVE PROJECT 2nd Y\WShop3_2D_P1X\bin\WShop3_2D_P1_debug.lib
C:\BEILLESZTES\PIROS\GOLDSMITH COURSES 2nd Y\CREATIVE PROJECT 2nd Y\WShop3_2D_P1X\bin\WShop3_2D_P1_debug.exp
^C:\BEILLESZTES\PIROS\GOLDSMITH COURSES 2nd Y\CREATIVE PROJECT 2nd Y\WShop3_2D_P1X\WShop3_2D_P1.vcxproj
C:\BEILLESZTES\PIROS\GOLDSMITH COURSES 2nd Y\CREATIVE PROJECT 2nd Y\WShop3_2D_P1X\bin\WShop3_2D_P1_debug.lib
C:\BEILLESZTES\PIROS\GOLDSMITH COURSES 2nd Y\CREATIVE PROJECT 2nd Y\WShop3_2D_P1X\bin\WShop3_2D_P1_debug.exp
^C:\BEILLESZTES\PIROS\GOLDSMITH COURSES 2nd Y\CREATIVE PROJECT 2nd Y\WShop3_2D_P1X\WShop3_2D_P1.vcxproj
C:\BEILLESZTES\PIROS\GOLDSMITH COURSES 2nd Y\CREATIVE PROJECT 2nd Y\WShop3_2D_P1X\bin\WShop3_2D_P1_debug.lib
C:\BEILLESZTES\PIROS\GOLDSMITH COURSES 2nd Y\CREATIVE PROJECT 2nd Y\WShop3_2D_P1X\bin\WShop3_2D_P1_debug.exp
^C:\BEILLESZTES\PIROS\GOLDSMITH COURSES 2nd Y\CREATIVE PROJECT 2nd Y\WShop3_2D_P1X\WShop3_2D_P1.vcxproj
C:\BEILLESZTES\PIROS\GOLDSMITH COURSES 2nd Y\CREATIVE PROJECT 2nd Y\WShop3_2D_P1X\bin\WShop3_2D_P1_debug.lib
C:\BEILLESZTES\PIROS\GOLDSMITH COURSES 2nd Y\CREATIVE PROJECT 2nd Y\WShop3_2D_P1X\bin\WShop3_2D_P1_debug.exp
^C:\BEILLESZTES\PIROS\GOLDSMITH COURSES 2nd Y\CREATIVE PROJECT 2nd Y\WShop3_2D_P1X\WShop3_2D_P1.vcxproj
C:\BEILLESZTES\PIROS\GOLDSMITH COURSES 2nd Y\CREATIVE PROJECT 2nd Y\WShop3_2D_P1X\bin\WShop3_2D_P1_debug.lib
C:\BEILLESZTES\PIROS\GOLDSMITH COURSES 2nd Y\CREATIVE PROJECT 2nd Y\WShop3_2D_P1X\bin\WShop3_2D_P1_debug.exp
^C:\BEILLESZTES\PIROS\GOLDSMITH COURSES 2nd Y\CREATIVE PROJECT 2nd Y\WShop3_2D_P1X\WShop3_2D_P1.vcxproj
C:\BEILLESZTES\PIROS\GOLDSMITH COURSES 2nd Y\CREATIVE PROJECT 2nd Y\WShop3_2D_P1X\bin\WShop3_2D_P1_debug.lib
C:\BEILLESZTES\PIROS\GOLDSMITH COURSES 2nd Y\CREATIVE PROJECT 2nd Y\WShop3_2D_P1X\bin\WShop3_2D_P1_debug.exp
^C:\BEILLESZTES\PIROS\GOLDSMITH COURSES 2nd Y\CREATIVE PROJECT 2nd Y\WShop3_2D_P1X\WShop3_2D_P1.vcxproj
C:\BEILLESZTES\PIROS\GOLDSMITH COURSES 2nd Y\CREATIVE PROJECT 2nd Y\WShop3_2D_P1X\bin\WShop3_2D_P1_debug.lib
C:\BEILLESZTES\PIROS\GOLDSMITH COURSES 2nd Y\CREATIVE PROJECT 2nd Y\WShop3_2D_P1X\bin\WShop3_2D_P1_debug.exp
^C:\BEILLESZTES\PIROS\GOLDSMITH COURSES 2nd Y\CREATIVE PROJECT 2nd Y\WShop3_2D_P1X\WShop3_2D_P1.vcxproj
C:\BEILLESZTES\PIROS\GOLDSMITH COURSES 2nd Y\CREATIVE PROJECT 2nd Y\WShop3_2D_P1X\bin\WShop3_2D_P1_debug.lib
C:\BEILLESZTES\PIROS\GOLDSMITH COURSES 2nd Y\CREATIVE PROJECT 2nd Y\WShop3_2D_P1X\bin\WShop3_2D_P1_debug.exp
^C:\BEILLESZTES\PIROS\GOLDSMITH COURSES 2nd Y\CREATIVE PROJECT 2nd Y\WShop3_2D_P1X\WShop3_2D_P1.vcxproj
C:\BEILLESZTES\PIROS\GOLDSMITH COURSES 2nd Y\CREATIVE PROJECT 2nd Y\WShop3_2D_P1X\bin\WShop3_2D_P1_debug.lib
C:\BEILLESZTES\PIROS\GOLDSMITH COURSES 2nd Y\CREATIVE PROJECT 2nd Y\WShop3_2D_P1X\bin\WShop3_2D_P1_debug.exp
^C:\BEILLESZTES\PIROS\GOLDSMITH COURSES 2nd Y\CREATIVE PROJECT 2nd Y\WShop3_2D_P1X\WShop3_2D_P1.vcxproj
C:\BEILLESZTES\PIROS\GOLDSMITH COURSES 2nd Y\CREATIVE PROJECT 2nd Y\WShop3_2D_P1X\bin\WShop3_2D_P1_debug.lib
C:\BEILLESZTES\PIROS\GOLDSMITH COURSES 2nd Y\CREATIVE PROJECT 2nd Y\WShop3_2D_P1X\bin\WShop3_2D_P1_debug.exp
^C:\BEILLESZTES\PIROS\GOLDSMITH COURSES 2nd Y\CREATIVE PROJECT 2nd Y\WShop3_2D_P1X\WShop3_2D_P1.vcxproj
C:\BEILLESZTES\PIROS\GOLDSMITH COURSES 2nd Y\CREATIVE PROJECT 2nd Y\WShop3_2D_P1X\bin\WShop3_2D_P1_debug.lib
C:\BEILLESZTES\PIROS\GOLDSMITH COURSES 2nd Y\CREATIVE PROJECT 2nd Y\WShop3_2D_P1X\bin\WShop3_2D_P1_debug.exp
^C:\BEILLESZTES\PIROS\GOLDSMITH COURSES 2nd Y\CREATIVE PROJECT 2nd Y\WShop3_2D_P1X\WShop3_2D_P1.vcxproj
C:\BEILLESZTES\PIROS\GOLDSMITH COURSES 2nd Y\CREATIVE PROJECT 2nd Y\WShop3_2D_P1X\bin\WShop3_2D_P1_debug.lib
C:\BEILLESZTES\PIROS\GOLDSMITH COURSES 2nd Y\CREATIVE PROJECT 2nd Y\WShop3_2D_P1X\bin\WShop3_2D_P1_debug.exp
^C:\BEILLESZTES\PIROS\GOLDSMITH COURSES 2nd Y\CREATIVE PROJECT 2nd Y\WShop3_2D_P1X\WShop3_2D_P1.vcxproj
C:\BEILLESZTES\PIROS\GOLDSMITH COURSES 2nd Y\CREATIVE PROJECT 2nd Y\WShop3_2D_P1X\bin\WShop3_2D_P1_debug.lib
C:\BEILLESZTES\PIROS\GOLDSMITH COURSES 2nd Y\CREATIVE PROJECT 2nd Y\WShop3_2D_P1X\bin\WShop3_2D_P1_debug.exp
^C:\BEILLESZTES\PIROS\GOLDSMITH COURSES 2nd Y\CREATIVE PROJECT 2nd Y\WShop3_2D_P1X\WShop3_2D_P1.vcxproj
C:\BEILLESZTES\PIROS\GOLDSMITH COURSES 2nd Y\CREATIVE PROJECT 2nd Y\WShop3_2D_P1X\bin\WShop3_2D_P1_debug.lib
C:\BEILLESZTES\PIROS\GOLDSMITH COURSES 2nd Y\CREATIVE PROJECT 2nd Y\WShop3_2D_P1X\bin\WShop3_2D_P1_debug.exp
^C:\BEILLESZTES\PIROS\GOLDSMITH COURSES 2nd Y\CREATIVE PROJECT 2nd Y\WShop3_2D_P1X\WShop3_2D_P1.vcxproj
C:\BEILLESZTES\PIROS\GOLDSMITH COURSES 2nd Y\CREATIVE PROJECT 2nd Y\WShop3_2D_P1X\bin\WShop3_2D_P1_debug.lib
C:\BEILLESZTES\PIROS\GOLDSMITH COURSES 2nd Y\CREATIVE PROJECT 2nd Y\WShop3_2D_P1X\bin\WShop3_2D_P1_debug.exp
^C:\BEILLESZTES\PIROS\GOLDSMITH COURSES 2nd Y\CREATIVE PROJECT 2nd Y\WShop3_2D_P1X\WShop3_2D_P1.vcxproj
C:\BEILLESZTES\PIROS\GOLDSMITH COURSES 2nd Y\CREATIVE PROJECT 2nd Y\WShop3_2D_P1X\bin\WShop3_2D_P1_debug.lib
C:\BEILLESZTES\PIROS\GOLDSMITH COURSES 2nd Y\CREATIVE PROJECT 2nd Y\WShop3_2D_P1X\bin\WShop3_2D_P1_debug.exp
^C:\BEILLESZTES\PIROS\GOLDSMITH COURSES 2nd Y\CREATIVE PROJECT 2nd Y\WShop3_2D_P1X\WShop3_2D_P1.vcxproj
C:\BEILLESZTES\PIROS\GOLDSMITH COURSES 2nd Y\CREATIVE PROJECT 2nd Y\WShop3_2D_P1X\bin\WShop3_2D_P1_debug.lib
C:\BEILLESZTES\PIROS\GOLDSMITH COURSES 2nd Y\CREATIVE PROJECT 2nd Y\WShop3_2D_P1X\bin\WShop3_2D_P1_debug.exp
^C:\BEILLESZTES\PIROS\GOLDSMITH COURSES 2nd Y\CREATIVE PROJECT 2nd Y\WShop3_2D_P1X\WShop3_2D_P1.vcxproj
C:\BEILLESZTES\PIROS\GOLDSMITH COURSES 2nd Y\CREATIVE PROJECT 2nd Y\WShop3_2D_P1X\bin\WShop3_2D_P1_debug.lib
C:\BEILLESZTES\PIROS\GOLDSMITH COURSES 2nd Y\CREATIVE PROJECT 2nd Y\WShop3_2D_P1X\bin\WShop3_2D_P1_debug.exp
^C:\BEILLESZTES\PIROS\GOLDSMITH COURSES 2nd Y\CREATIVE PROJECT 2nd Y\WShop3_2D_P1X\WShop3_2D_P1.vcxproj
C:\BEILLESZTES\PIROS\GOLDSMITH COURSES 2nd Y\CREATIVE PROJECT 2nd Y\WShop3_2D_P1X\bin\WShop3_2D_P1_debug.lib
C:\BEILLESZTES\PIROS\GOLDSMITH COURSES 2nd Y\CREATIVE PROJECT 2nd Y\WShop3_2D_P1X\bin\WShop3_2D_P1_debug.exp
^C:\BEILLESZTES\PIROS\GOLDSMITH COURSES 2nd Y\CREATIVE PROJECT 2nd Y\WShop3_2D_P1X\WShop3_2D_P1.vcxproj
C:\BEILLESZTES\PIROS\GOLDSMITH COURSES 2nd Y\CREATIVE PROJECT 2nd Y\WShop3_2D_P1X\bin\WShop3_2D_P1_debug.lib
C:\BEILLESZTES\PIROS\GOLDSMITH COURSES 2nd Y\CREATIVE PROJECT 2nd Y\WShop3_2D_P1X\bin\WShop3_2D_P1_debug.exp
^C:\BEILLESZTES\PIROS\GOLDSMITH COURSES 2nd Y\CREATIVE PROJECT 2nd Y\WShop3_2D_P1X\WShop3_2D_P1.vcxproj
C:\BEILLESZTES\PIROS\GOLDSMITH COURSES 2nd Y\CREATIVE PROJECT 2nd Y\WShop3_2D_P1X\bin\WShop3_2D_P1_debug.lib
C:\BEILLESZTES\PIROS\GOLDSMITH COURSES 2nd Y\CREATIVE PROJECT 2nd Y\WShop3_2D_P1X\bin\WShop3_2D_P1_debug.exp
^C:\BEILLESZTES\PIROS\GOLDSMITH COURSES 2nd Y\CREATIVE PROJECT 2nd Y\WShop3_2D_P1X\WShop3_2D_P1.vcxproj
C:\BEILLESZTES\PIROS\GOLDSMITH COURSES 2nd Y\CREATIVE PROJECT 2nd Y\WShop3_2D_P1X\bin\WShop3_2D_P1_debug.lib
C:\BEILLESZTES\PIROS\GOLDSMITH COURSES 2nd Y\CREATIVE PROJECT 2nd Y\WShop3_2D_P1X\bin\WShop3_2D_P1_debug.exp
^C:\BEILLESZTES\PIROS\GOLDSMITH COURSES 2nd Y\CREATIVE PROJECT 2nd Y\WShop3_2D_P1X\WShop3_2D_P1.vcxproj
C:\BEILLESZTES\PIROS\GOLDSMITH COURSES 2nd Y\CREATIVE PROJECT 2nd Y\WShop3_2D_P1X\bin\WShop3_2D_P1_debug.lib
C:\BEILLESZTES\PIROS\GOLDSMITH COURSES 2nd Y\CREATIVE PROJECT 2nd Y\WShop3_2D_P1X\bin\WShop3_2D_P1_debug.exp
^C:\BEILLESZTES\PIROS\GOLDSMITH COURSES 2nd Y\CREATIVE PROJECT 2nd Y\WShop3_2D_P1X\WShop3_2D_P1.vcxproj
C:\BEILLESZTES\PIROS\GOLDSMITH COURSES 2nd Y\CREATIVE PROJECT 2nd Y\WShop3_2D_P1X\bin\WShop3_2D_P1_debug.lib
C:\BEILLESZTES\PIROS\GOLDSMITH COURSES 2nd Y\CREATIVE PROJECT 2nd Y\WShop3_2D_P1X\bin\WShop3_2D_P1_debug.exp
^C:\BEILLESZTES\PIROS\GOLDSMITH COURSES 2nd Y\CREATIVE PROJECT 2nd Y\WShop3_2D_P1X\WShop3_2D_P1.vcxproj
C:\BEILLESZTES\PIROS\GOLDSMITH COURSES 2nd Y\CREATIVE PROJECT 2nd Y\WShop3_2D_P1X\bin\WShop3_2D_P1_debug.lib
C:\BEILLESZTES\PIROS\GOLDSMITH COURSES 2nd Y\CREATIVE PROJECT 2nd Y\WShop3_2D_P1X\bin\WShop3_2D_P1_debug.exp
^C:\BEILLESZTES\PIROS\GOLDSMITH COURSES 2nd Y\CREATIVE PROJECT 2nd Y\WShop3_2D_P1X\WShop3_2D_P1.vcxproj
C:\BEILLESZTES\PIROS\GOLDSMITH COURSES 2nd Y\CREATIVE PROJECT 2nd Y\WShop3_2D_P1X\bin\WShop3_2D_P1_debug.lib
C:\BEILLESZTES\PIROS\GOLDSMITH COURSES 2nd Y\CREATIVE PROJECT 2nd Y\WShop3_2D_P1X\bin\WShop3_2D_P1_debug.exp
^C:\BEILLESZTES\PIROS\GOLDSMITH COURSES 2nd Y\CREATIVE PROJECT 2nd Y\WShop3_2D_P1X\WShop3_2D_P1.vcxproj
C:\BEILLESZTES\PIROS\GOLDSMITH COURSES 2nd Y\CREATIVE PROJECT 2nd Y\WShop3_2D_P1X\bin\WShop3_2D_P1_debug.lib
C:\BEILLESZTES\PIROS\GOLDSMITH COURSES 2nd Y\CREATIVE PROJECT 2nd Y\WShop3_2D_P1X\bin\WShop3_2D_P1_debug.exp
^C:\BEILLESZTES\PIROS\GOLDSMITH COURSES 2nd Y\CREATIVE PROJECT 2nd Y\WShop3_2D_P1X\WShop3_2D_P1.vcxproj
C:\BEILLESZTES\PIROS\GOLDSMITH COURSES 2nd Y\CREATIVE PROJECT 2nd Y\WShop3_2D_P1X\bin\WShop3_2D_P1_debug.lib
C:\BEILLESZTES\PIROS\GOLDSMITH COURSES 2nd Y\CREATIVE PROJECT 2nd Y\WShop3_2D_P1X\bin\WShop3_2D_P1_debug.exp
^C:\BEILLESZTES\PIROS\GOLDSMITH COURSES 2nd Y\CREATIVE PROJECT 2nd Y\WShop3_2D_P1X\WShop3_2D_P1.vcxproj
C:\BEILLESZTES\PIROS\GOLDSMITH COURSES 2nd Y\CREATIVE PROJECT 2nd Y\WShop3_2D_P1X\bin\WShop3_2D_P1_debug.lib
C:\BEILLESZTES\PIROS\GOLDSMITH COURSES 2nd Y\CREATIVE PROJECT 2nd Y\WShop3_2D_P1X\bin\WShop3_2D_P1_debug.exp
^C:\BEILLESZTES\PIROS\GOLDSMITH COURSES 2nd Y\CREATIVE PROJECT 2nd Y\WShop3_2D_P1X\WShop3_2D_P1.vcxproj
C:\BEILLESZTES\PIROS\GOLDSMITH COURSES 2nd Y\CREATIVE PROJECT 2nd Y\WShop3_2D_P1X\bin\WShop3_2D_P1_debug.lib
C:\BEILLESZTES\PIROS\GOLDSMITH COURSES 2nd Y\CREATIVE PROJECT 2nd Y\WShop3_2D_P1X\bin\WShop3_2D_P1_debug.exp
^C:\BEILLESZTES\PIROS\GOLDSMITH COURSES 2nd Y\CREATIVE PROJECT 2nd Y\WShop3_2D_P1X\WShop3_2D_P1.vcxproj
C:\BEILLESZTES\PIROS\GOLDSMITH COURSES 2nd Y\CREATIVE PROJECT 2nd Y\WShop3_2D_P1X\bin\WShop3_2D_P1_debug.lib
C:\BEILLESZTES\PIROS\GOLDSMITH COURSES 2nd Y\CREATIVE PROJECT 2nd Y\WShop3_2D_P1X\bin\WShop3_2D_P1_debug.exp
^C:\BEILLESZTES\PIROS\GOLDSMITH COURSES 2nd Y\CREATIVE PROJECT 2nd Y\WShop3_2D_P1X\WShop3_2D_P1.vcxproj
C:\BEILLESZTES\PIROS\GOLDSMITH COURSES 2nd Y\CREATIVE PROJECT 2nd Y\WShop3_2D_P1X\bin\WShop3_2D_P1_debug.lib
C:\BEILLESZTES\PIROS\GOLDSMITH COURSES 2nd Y\CREATIVE PROJECT 2nd Y\WShop3_2D_P1X\bin\WShop3_2D_P1_debug.exp
^C:\BEILLESZTES\PIROS\GOLDSMITH COURSES 2nd Y\CREATIVE PROJECT 2nd Y\WShop3_2D_P1X\WShop3_2D_P1.vcxproj
C:\BEILLESZTES\PIROS\GOLDSMITH COURSES 2nd Y\CREATIVE PROJECT 2nd Y\WShop3_2D_P1X\bin\WShop3_2D_P1_debug.lib
C:\BEILLESZTES\PIROS\GOLDSMITH COURSES 2nd Y\CREATIVE PROJECT 2nd Y\WShop3_2D_P1X\bin\WShop3_2D_P1_debug.exp
^C:\BEILLESZTES\PIROS\GOLDSMITH COURSES 2nd Y\CREATIVE PROJECT 2nd Y\WShop3_2D_P1X\WShop3_2D_P1.vcxproj
C:\BEILLESZTES\PIROS\GOLDSMITH COURSES 2nd Y\CREATIVE PROJECT 2nd Y\WShop3_2D_P1X\bin\WShop3_2D_P1_debug.lib
C:\BEILLESZTES\PIROS\GOLDSMITH COURSES 2nd Y\CREATIVE PROJECT 2nd Y\WShop3_2D_P1X\bin\WShop3_2D_P1_debug.exp
^C:\BEILLESZTES\PIROS\GOLDSMITH COURSES 2nd Y\CREATIVE PROJECT 2nd Y\WShop3_2D_P1X\WShop3_2D_P1.vcxproj
C:\BEILLESZTES\PIROS\GOLDSMITH COURSES 2nd Y\CREATIVE PROJECT 2nd Y\WShop3_2D_P1X\bin\WShop3_2D_P1_debug.lib
C:\BEILLESZTES\PIROS\GOLDSMITH COURSES 2nd Y\CREATIVE PROJECT 2nd Y\WShop3_2D_P1X\bin\WShop3_2D_P1_debug.exp
^C:\BEILLESZTES\PIROS\GOLDSMITH COURSES 2nd Y\CREATIVE PROJECT 2nd Y\WShop3_2D_P1X\WShop3_2D_P1.vcxproj
C:\BEILLESZTES\PIROS\GOLDSMITH COURSES 2nd Y\CREATIVE PROJECT 2nd Y\WShop3_2D_P1X\bin\WShop3_2D_P1_debug.lib
C:\BEILLESZTES\PIROS\GOLDSMITH COURSES 2nd Y\CREATIVE PROJECT 2nd Y\WShop3_2D_P1X\bin\WShop3_2D_P1_debug.exp
^C:\BEILLESZTES\PIROS\GOLDSMITH COURSES 2nd Y\CREATIVE PROJECT 2nd Y\WShop3_2D_P1X\WShop3_2D_P1.vcxproj
C:\BEILLESZTES\PIROS\GOLDSMITH COURSES 2nd Y\CREATIVE PROJECT 2nd Y\WShop3_2D_P1X\bin\WShop3_2D_P1_debug.lib
C:\BEILLESZTES\PIROS\GOLDSMITH COURSES 2nd Y\CREATIVE PROJECT 2nd Y\WShop3_2D_P1X\bin\WShop3_2D_P1_debug.exp
^C:\BEILLESZTES\PIROS\GOLDSMITH COURSES 2nd Y\CREATIVE PROJECT 2nd Y\WShop3_2D_P1X\WShop3_2D_P1.vcxproj
C:\BEILLESZTES\PIROS\GOLDSMITH COURSES 2nd Y\CREATIVE PROJECT 2nd Y\WShop3_2D_P1X\bin\WShop3_2D_P1_debug.lib
C:\BEILLESZTES\PIROS\GOLDSMITH COURSES 2nd Y\CREATIVE PROJECT 2nd Y\WShop3_2D_P1X\bin\WShop3_2D_P1_debug.exp
^C:\BEILLESZTES\PIROS\GOLDSMITH COURSES 2nd Y\CREATIVE PROJECT 2nd Y\WShop3_2D_P1X\WShop3_2D_P1.vcxproj
C:\BEILLESZTES\PIROS\GOLDSMITH COURSES 2nd Y\CREATIVE PROJECT 2nd Y\WShop3_2D_P1X\bin\WShop3_2D_P1_debug.lib
C:\BEILLESZTES\PIROS\GOLDSMITH COURSES 2nd Y\CREATIVE PROJECT 2nd Y\WShop3_2D_P1X\bin\WShop3_2D_P1_debug.exp
^C:\BEILLESZTES\PIROS\GOLDSMITH COURSES 2nd Y\CREATIVE PROJECT 2nd Y\WShop3_2D_P1X\WShop3_2D_P1.vcxproj
C:\BEILLESZTES\PIROS\GOLDSMITH COURSES 2nd Y\CREATIVE PROJECT 2nd Y\WShop3_2D_P1X\bin\WShop3_2D_P1_debug.lib
C:\BEILLESZTES\PIROS\GOLDSMITH COURSES 2nd Y\CREATIVE PROJECT 2nd Y\WShop3_2D_P1X\bin\WShop3_2D_P1_debug.exp
^C:\BEILLESZTES\PIROS\GOLDSMITH COURSES 2nd Y\CREATIVE PROJECT 2nd Y\WShop3_2D_P1X\WShop3_2D_P1.vcxproj
C:\BEILLESZTES\PIROS\GOLDSMITH COURSES 2nd Y\CREATIVE PROJECT 2nd Y\WShop3_2D_P1X\bin\WShop3_2D_P1_debug.lib
C:\BEILLESZTES\PIROS\GOLDSMITH COURSES 2nd Y\CREATIVE PROJECT 2nd Y\WShop3_2D_P1X\bin\WShop3_2D_P1_debug.exp
^C:\BEILLESZTES\PIROS\GOLDSMITH COURSES 2nd Y\CREATIVE PROJECT 2nd Y\WShop3_2D_P1X\WShop3_2D_P1.vcxproj
C:\BEILLESZTES\PIROS\GOLDSMITH COURSES 2nd Y\CREATIVE PROJECT 2nd Y\WShop3_2D_P1X\bin\WShop3_2D_P1_debug.lib
C:\BEILLESZTES\PIROS\GOLDSMITH COURSES 2nd Y\CREATIVE PROJECT 2nd Y\WShop3_2D_P1X\bin\WShop3_2D_P1_debug.exp
^C:\BEILLESZTES\PIROS\GOLDSMITH COURSES 2nd Y\CREATIVE PROJECT 2nd Y\WShop3_2D_P1X\WShop3_2D_P1.vcxproj
C:\BEILLESZTES\PIROS\GOLDSMITH COURSES 2nd Y\CREATIVE PROJECT 2nd Y\WShop3_2D_P1X\bin\WShop3_2D_P1_debug.lib
C:\BEILLESZTES\PIROS\GOLDSMITH COURSES 2nd Y\CREATIVE PROJECT 2nd Y\WShop3_2D_P1X\bin\WShop3_2D_P1_debug.exp
^C:\BEILLESZTES\PIROS\GOLDSMITH COURSES 2nd Y\CREATIVE PROJECT 2nd Y\WShop3_2D_P1X\WShop3_2D_P1.vcxproj
C:\BEILLESZTES\PIROS\GOLDSMITH COURSES 2nd Y\CREATIVE PROJECT 2nd Y\WShop3_2D_P1X\bin\WShop3_2D_P1_debug.lib
C:\BEILLESZTES\PIROS\GOLDSMITH COURSES 2nd Y\CREATIVE PROJECT 2nd Y\WShop3_2D_P1X\bin\WShop3_2D_P1_debug.exp
^C:\BEILLESZTES\PIROS\GOLDSMITH COURSES 2nd Y\CREATIVE PROJECT 2nd Y\WShop3_2D_P1X\WShop3_2D_P1.vcxproj
C:\BEILLESZTES\PIROS\GOLDSMITH COURSES 2nd Y\CREATIVE PROJECT 2nd Y\WShop3_2D_P1X\bin\WShop3_2D_P1_debug.lib
C:\BEILLESZTES\PIROS\GOLDSMITH COURSES 2nd Y\CREATIVE PROJECT 2nd Y\WShop3_2D_P1X\bin\WShop3_2D_P1_debug.exp
^C:\BEILLESZTES\PIROS\GOLDSMITH COURSES 2nd Y\CREATIVE PROJECT 2nd Y\WShop3_2D_P1X\WShop3_2D_P1.vcxproj
C:\BEILLESZTES\PIROS\GOLDSMITH COURSES 2nd Y\CREATIVE PROJECT 2nd Y\WShop3_2D_P1X\bin\WShop3_2D_P1_debug.lib
C:\BEILLESZTES\PIROS\GOLDSMITH COURSES 2nd Y\CREATIVE PROJECT 2nd Y\WShop3_2D_P1X\bin\WShop3_2D_P1_debug.exp
^C:\BEILLESZTES\PIROS\GOLDSMITH COURSES 2nd Y\CREATIVE PROJECT 2nd Y\WShop3_2D_P1X\WShop3_2D_P1.vcxproj
C:\BEILLESZTES\PIROS\GOLDSMITH COURSES 2nd Y\CREATIVE PROJECT 2nd Y\WShop3_2D_P1X\bin\WShop3_2D_P1_debug.lib
C:\BEILLESZTES\PIROS\GOLDSMITH COURSES 2nd Y\CREATIVE PROJECT 2nd Y\WShop3_2D_P1X\bin\WShop3_2D_P1_debug.exp
^C:\BEILLESZTES\PIROS\GOLDSMITH COURSES 2nd Y\CREATIVE PROJECT 2nd Y\WShop3_2D_P1X\WShop3_2D_P1.vcxproj
C:\BEILLESZTES\PIROS\GOLDSMITH COURSES 2nd Y\CREATIVE PROJECT 2nd Y\WShop3_2D_P1X\bin\WShop3_2D_P1_debug.lib
C:\BEILLESZTES\PIROS\GOLDSMITH COURSES 2nd Y\CREATIVE PROJECT 2nd Y\WShop3_2D_P1X\bin\WShop3_2D_P1_debug.exp
^C:\BEILLESZTES\PIROS\GOLDSMITH COURSES 2nd Y\CREATIVE PROJECT 2nd Y\WShop3_2D_P1X\WShop3_2D_P1.vcxproj
C:\BEILLESZTES\PIROS\GOLDSMITH COURSES 2nd Y\CREATIVE PROJECT 2nd Y\WShop3_2D_P1X\bin\WShop3_2D_P1_debug.lib
C:\BEILLESZTES\PIROS\GOLDSMITH COURSES 2nd Y\CREATIVE PROJECT 2nd Y\WShop3_2D_P1X\bin\WShop3_2D_P1_debug.exp
^C:\BEILLESZTES\PIROS\GOLDSMITH COURSES 2nd Y\CREATIVE PROJECT 2nd Y\WShop3_2D_P1X\WShop3_2D_P1.vcxproj
C:\BEILLESZTES\PIROS\GOLDSMITH COURSES 2nd Y\CREATIVE PROJECT 2nd Y\WShop3_2D_P1X\bin\WShop3_2D_P1_debug.lib
C:\BEILLESZTES\PIROS\GOLDSMITH COURSES 2nd Y\CREATIVE PROJECT 2nd Y\WShop3_2D_P1X\bin\WShop3_2D_P1_debug.exp
^C:\BEILLESZTES\PIROS\GOLDSMITH COURSES 2nd Y\CREATIVE PROJECT 2nd Y\WShop3_2D_P1X\WShop3_2D_P1.vcxproj
C:\BEILLESZTES\PIROS\GOLDSMITH COURSES 2nd Y\CREATIVE PROJECT 2nd Y\WShop3_2D_P1X\bin\WShop3_2D_P1_debug.lib
C:\BEILLESZTES\PIROS\GOLDSMITH COURSES 2nd Y\CREATIVE PROJECT 2nd Y\WShop3_2D_P1X\bin\WShop3_2D_P1_debug.exp
^C:\BEILLESZTES\PIROS\GOLDSMITH COURSES 2nd Y\CREATIVE PROJECT 2nd Y\WShop3_2D_P1X\WShop3_2D_P1.vcxproj
C:\BEILLESZTES\PIROS\GOLDSMITH COURSES 2nd Y\CREATIVE PROJECT 2nd Y\WShop3_2D_P1X\bin\WShop3_2D_P1_debug.lib
C:\BEILLESZTES\PIROS\GOLDSMITH COURSES 2nd Y\CREATIVE PROJECT 2nd Y\WShop3_2D_P1X\bin\WShop3_2D_P1_debug.exp
^C:\BEILLESZTES\PIROS\GOLDSMITH COURSES 2nd Y\CREATIVE PROJECT 2nd Y\WShop3_2D_P1X\WShop3_2D_P1.vcxproj
C:\BEILLESZTES\PIROS\GOLDSMITH COURSES 2nd Y\CREATIVE PROJECT 2nd Y\WShop3_2D_P1X\bin\WShop3_2D_P1_debug.lib
C:\BEILLESZTES\PIROS\GOLDSMITH COURSES 2nd Y\CREATIVE PROJECT 2nd Y\WShop3_2D_P1X\bin\WShop3_2D_P1_debug.exp
^C:\BEILLESZTES\PIROS\GOLDSMITH COURSES 2nd Y\CREATIVE PROJECT 2nd Y\WShop3_2D_P1X\WShop3_2D_P1.vcxproj
C:\BEILLESZTES\PIROS\GOLDSMITH COURSES 2nd Y\CREATIVE PROJECT 2nd Y\WShop3_2D_P1X\bin\WShop3_2D_P1_debug.lib
C:\BEILLESZTES\PIROS\GOLDSMITH COURSES 2nd Y\CREATIVE PROJECT 2nd Y\WShop3_2D_P1X\bin\WShop3_2D_P1_debug.exp
